
=> moveForward


moveForward ( iDist, (iSpeed) )
{
    bNewMove = true;

    bTarget = false;

    targetDir = dir;
    targetDist = iDist;

    // adapted in update if needed (if dist < da + df)
    stopDist = df;
// !!!! ???? TODO : OK ? ???? !!!!
//    stopSpeed = maxSpeed;
    stopSpeed = iSpeed;
}

----------------------------------------------------------------

SPACE
-----

    bNewMove = true;
    bTarget = false;

    targetDir = dir;
    targetDist = 200.0;

    stopDist = df;
// !!!! ???? TODO : OK ? ???? !!!!
//    stopSpeed = maxSpeed;
    stopSpeed = 50.0;

----------------------------------------------------------------
