
/////////////////
// SAVE BUTTON //
/////////////////

===========================================================================================================

LEFT-CLICK EVENT :
==================

// trigger alarm in obj_editor
obj_editor.alarm[3] = 1;	// OK ????

===========================================================================================================
