
////////////////////
// EDITOR OBJECTS //
////////////////////

===========================================================================================================

CREATED MANUALLY :
==================

GUI Objects :
-------------
- obj_editor (1)
- obj_btn_directed (1)
- obj_btn_gen (1)

===========================================================================================================

CREATED AUTOMATICALLY :
=======================
(at startup, or when click on "Load" & give a map file)
- obj_block (...)
- obj_door (0-N)
- obj_special (0-N)
- obj_spawn (0-N)


(once click on "Generate" button)
- obj_area (1-N)
- obj_switch (0-N)

===========================================================================================================
