[Cells]
 32
 17

[Blocks]
 182
 0
 0
 1
 0
 2
 0
 3
 0
 4
 0
 5
 0
 6
 0
 7
 0
 8
 0
 9
 0
 10
 0
 11
 0
 12
 0
 13
 0
 14
 0
 15
 0
 16
 0
 17
 0
 18
 0
 19
 0
 20
 0
 21
 0
 22
 0
 23
 0
 24
 0
 25
 0
 26
 0
 27
 0
 28
 0
 29
 0
 30
 0
 31
 0
 0
 1
 1
 1
 2
 1
 3
 1
 4
 1
 5
 1
 6
 1
 7
 1
 8
 1
 9
 1
 10
 1
 11
 1
 12
 1
 13
 1
 14
 1
 15
 1
 16
 1
 17
 1
 18
 1
 19
 1
 20
 1
 21
 1
 22
 1
 31
 1
 0
 2
 5
 2
 6
 2
 7
 2
 8
 2
 9
 2
 10
 2
 11
 2
 12
 2
 13
 2
 14
 2
 31
 2
 0
 3
 5
 3
 14
 3
 19
 3
 20
 3
 21
 3
 22
 3
 31
 3
 0
 4
 19
 4
 20
 4
 21
 4
 22
 4
 31
 4
 0
 5
 1
 5
 2
 5
 4
 5
 5
 5
 14
 5
 22
 5
 23
 5
 24
 5
 25
 5
 27
 5
 28
 5
 29
 5
 30
 5
 31
 5
 0
 6
 5
 6
 14
 6
 22
 6
 31
 6
 0
 7
 31
 7
 0
 8
 5
 8
 14
 8
 22
 8
 31
 8
 0
 9
 14
 9
 15
 9
 16
 9
 17
 9
 19
 9
 20
 9
 21
 9
 22
 9
 31
 9
 0
 10
 5
 10
 22
 10
 31
 10
 0
 11
 2
 11
 3
 11
 4
 11
 5
 11
 14
 11
 31
 11
 0
 12
 14
 12
 22
 12
 31
 12
 0
 13
 1
 13
 2
 13
 3
 13
 4
 13
 5
 13
 22
 13
 31
 13
 0
 14
 14
 14
 31
 14
 0
 15
 5
 15
 14
 15
 22
 15
 31
 15
 0
 16
 1
 16
 2
 16
 3
 16
 4
 16
 5
 16
 6
 16
 7
 16
 8
 16
 9
 16
 10
 16
 11
 16
 12
 16
 13
 16
 14
 16
 15
 16
 16
 16
 17
 16
 18
 16
 19
 16
 20
 16
 21
 16
 22
 16
 23
 16
 24
 16
 25
 16
 26
 16
 27
 16
 28
 16
 29
 16
 30
 16
 31
 16

[Doors]
 17
 0
 22
 2
 1
 5
 4
 2
 14
 4
 3
 3
 5
 4
 26
 5
 5
 5
 7
 6
 14
 7
 7
 22
 7
 8
 5
 9
 9
 18
 9
 10
 14
 10
 11
 1
 11
 12
 22
 11
 13
 5
 12
 14
 14
 13
 15
 5
 14
 16
 22
 14

[Specials]
 14
 17
 17
 3
 18
 6
 5
 19
 13
 5
 20
 15
 5
 21
 4
 8
 22
 6
 8
 23
 13
 9
 24
 23
 9
 25
 6
 11
 26
 13
 12
 27
 15
 12
 28
 23
 12
 29
 6
 13
 30
 21
 13

[FloydNext]
 31
 9
 17
 17
 17
 17
 17
 -1
 17
 -1
 4

 -1
 3
 3
 18
 -1
 2
 18
 2
 6

 1
 5
 19
 19
 -1
 -1
 19
 17
 7

 -1
 -1
 11
 21
 1
 1
 5
 1
 1

 7
 7
 7
 7
 7
 7
 24
 -1
 -1

 3
 -1
 21
 22
 -1
 6
 10
 2
 6

 1
 5
 25
 29
 -1
 -1
 23
 20
 7

 6
 6
 9
 9
 6
 -1
 9
 4
 -1

 21
 -1
 25
 25
 -1
 6
 10
 22
 10

 6
 10
 10
 10
 10
 -1
 -1
 7
 7

 23
 8
 13
 15
 -1
 23
 -1
 9
 12

 3
 -1
 -1
 13
 13
 8
 13
 8
 13

 9
 10
 10
 14
 10
 9
 -1
 24
 -1

 25
 25
 -1
 29
 -1
 25
 14
 25
 14

 26
 8
 13
 15
 -1
 27
 -1
 27
 16

 29
 29
 29
 -1
 -1
 29
 14
 29
 14

 10
 14
 14
 14
 14
 30
 -1
 28
 -1

 2
 2
 2
 20
 2
 -1
 9
 0
 7

 1
 5
 22
 22
 -1
 19
 23
 19
 19

 18
 18
 25
 29
 -1
 2
 23
 2
 2

 2
 2
 6
 6
 2
 -1
 6
 17
 17

 3
 -1
 11
 8
 5
 5
 8
 5
 5

 5
 5
 25
 25
 -1
 2
 23
 2
 23

 18
 22
 25
 25
 -1
 6
 10
 6
 10

 7
 7
 12
 12
 7
 7
 12
 4
 -1

 8
 8
 13
 29
 -1
 6
 26
 19
 26

 18
 25
 25
 14
 -1
 23
 14
 10
 14

 10
 14
 14
 14
 14
 9
 -1
 9
 30

 12
 12
 12
 12
 12
 24
 12
 4
 -1

 25
 25
 13
 15
 -1
 6
 13
 6
 6

 9
 27
 27
 27
 27
 9
 -1
 12
 16


[NextDoor]
 0
 2
 0
 -1
 -1

 1
 2
 1
 3
 1

 2
 2
 1
 3
 1

 3
 2
 1
 3
 1

 4
 2
 1
 1
 3

 5
 2
 1
 1
 3

 6
 2
 1
 1
 3

 7
 2
 1
 1
 3

 8
 2
 1
 1
 3

 9
 4
 1
 3
 5
 8
 11

 10
 4
 0
 -1
 -1
 -1
 -1

 11
 4
 1
 11
 8
 5
 3

 12
 4
 1
 8
 11
 5
 3

 13
 4
 2
 5
 8
 3
 11

 14
 4
 1
 5
 8
 3
 11

 15
 4
 1
 8
 5
 3
 11

 16
 4
 1
 5
 8
 3
 11

 17
 4
 1
 5
 8
 3
 11

 18
 2
 1
 11
 13

 19
 2
 1
 11
 13

 20
 2
 0
 -1
 -1

 21
 2
 1
 13
 11

 22
 2
 1
 13
 11

 23
 2
 1
 13
 11

 24
 2
 1
 13
 11

 25
 2
 1
 13
 11

 26
 2
 1
 13
 11

 27
 1
 1
 15

 28
 1
 1
 15

 29
 1
 1
 15

 30
 1
 0
 -1

 31
 1
 1
 15

 32
 1
 1
 15

 33
 1
 1
 15

 34
 1
 1
 15

 35
 1
 1
 15

 36
 9
 1
 1
 5
 8
 13
 2
 6
 15
 10
 14

 37
 9
 2
 5
 8
 1
 13
 15
 6
 10
 2
 14

 38
 9
 1
 13
 15
 8
 5
 1
 14
 10
 6
 2

 39
 9
 1
 15
 13
 8
 5
 14
 10
 1
 6
 2

 40
 9
 0
 -1
 -1
 -1
 -1
 -1
 -1
 -1
 -1
 -1

 41
 9
 2
 2
 6
 10
 14
 1
 5
 8
 13
 15

 42
 9
 2
 10
 14
 6
 2
 8
 13
 15
 5
 1

 43
 9
 1
 2
 6
 10
 14
 1
 5
 8
 13
 15

 44
 9
 1
 6
 10
 14
 2
 5
 8
 13
 15
 1

 45
 5
 1
 2
 6
 9
 0
 7

 46
 5
 1
 6
 2
 9
 7
 0

 47
 5
 1
 6
 2
 9
 7
 0

 48
 5
 1
 6
 2
 9
 7
 0

 49
 5
 2
 2
 6
 9
 7
 0

 50
 5
 0
 -1
 -1
 -1
 -1
 -1

 51
 5
 1
 9
 6
 7
 2
 0

 52
 5
 1
 0
 7
 2
 9
 6

 53
 5
 1
 7
 9
 0
 6
 2

 54
 5
 1
 10
 14
 9
 12
 16

 55
 5
 1
 10
 14
 9
 12
 16

 56
 5
 1
 14
 10
 9
 16
 12

 57
 5
 1
 14
 10
 9
 16
 12

 58
 5
 2
 10
 14
 9
 12
 16

 59
 5
 1
 9
 10
 12
 14
 16

 60
 5
 0
 -1
 -1
 -1
 -1
 -1

 61
 5
 1
 12
 9
 16
 10
 14

 62
 5
 2
 12
 16
 9
 10
 14

 63
 2
 1
 0
 4

 64
 2
 1
 0
 4

 65
 2
 1
 0
 4

 66
 2
 1
 0
 4

 67
 2
 1
 0
 4

 68
 2
 1
 0
 4

 69
 2
 1
 4
 0

 70
 2
 0
 -1
 -1

 71
 2
 1
 4
 0

 72
 4
 1
 7
 12
 16
 4

 73
 4
 1
 7
 12
 16
 4

 74
 4
 1
 16
 12
 7
 4

 75
 4
 1
 16
 12
 7
 4

 76
 4
 1
 7
 12
 16
 4

 77
 4
 1
 7
 4
 12
 16

 78
 4
 2
 12
 16
 7
 4

 79
 4
 1
 4
 7
 12
 16

 80
 4
 0
 -1
 -1
 -1
 -1


[NewArea]
 17
 9
 5
 5
 5
 5
 5
 5
 5
 7
 7

 0
 0
 0
 4
 4
 4
 4
 4
 4

 4
 4
 4
 4
 4
 5
 4
 5
 5

 0
 1
 1
 1
 0
 0
 1
 0
 0

 8
 8
 8
 8
 8
 8
 8
 7
 8

 1
 1
 1
 4
 4
 4
 4
 4
 4

 4
 4
 4
 4
 4
 5
 4
 5
 5

 5
 5
 5
 5
 5
 5
 5
 8
 8

 1
 1
 4
 4
 4
 4
 4
 4
 4

 5
 6
 6
 6
 6
 5
 6
 5
 5

 4
 4
 4
 4
 4
 4
 6
 6
 6

 1
 1
 2
 2
 2
 1
 2
 1
 2

 6
 6
 6
 6
 6
 6
 6
 8
 8

 4
 4
 2
 4
 4
 4
 4
 4
 4

 4
 4
 4
 4
 4
 6
 6
 6
 6

 4
 4
 4
 3
 4
 4
 4
 4
 4

 6
 6
 6
 6
 6
 6
 6
 8
 8


[Switches]
 34
 23
 2.500000
 7
 22
 2.500000
 5
 6
 4.500000
 4
 5
 4.500000
 0
 15
 4.500000
 5
 14
 4.500000
 4
 3.500000
 5
 0
 3.500000
 6
 1
 26.500000
 5
 7
 26.500000
 6
 8
 6
 7.500000
 4
 5
 7.500000
 1
 15
 7.500000
 5
 14
 7.500000
 4
 23
 7.500000
 8
 22
 7.500000
 5
 6
 9.500000
 4
 5
 9.500000
 1
 18.500000
 9
 5
 18.500000
 10
 6
 15
 10.500000
 6
 14
 10.500000
 4
 1.500000
 11
 1
 1.500000
 12
 2
 23
 11.500000
 8
 22
 11.500000
 6
 6
 12.500000
 4
 5
 12.500000
 2
 15
 13.500000
 6
 14
 13.500000
 4
 6
 14.500000
 4
 5
 14.500000
 3
 23
 14.500000
 8
 22
 14.500000
 6

[Spawns]
 1
 27.500000
 2.500000
 7

[Hero]
 2
 3
 0

