[Cells]
 15.0000
 9.0000

[Blocks]
 60.0000
 0.0000
 0.0000
 1.0000
 0.0000
 2.0000
 0.0000
 3.0000
 0.0000
 4.0000
 0.0000
 5.0000
 0.0000
 6.0000
 0.0000
 7.0000
 0.0000
 8.0000
 0.0000
 9.0000
 0.0000
 10.0000
 0.0000
 11.0000
 0.0000
 12.0000
 0.0000
 13.0000
 0.0000
 14.0000
 0.0000
 0.0000
 1.0000
 5.0000
 1.0000
 6.0000
 1.0000
 7.0000
 1.0000
 8.0000
 1.0000
 9.0000
 1.0000
 10.0000
 1.0000
 11.0000
 1.0000
 12.0000
 1.0000
 13.0000
 1.0000
 14.0000
 1.0000
 0.0000
 2.0000
 5.0000
 2.0000
 14.0000
 2.0000
 0.0000
 3.0000
 14.0000
 3.0000
 0.0000
 4.0000
 1.0000
 4.0000
 2.0000
 4.0000
 4.0000
 4.0000
 5.0000
 4.0000
 14.0000
 4.0000
 0.0000
 5.0000
 5.0000
 5.0000
 14.0000
 5.0000
 0.0000
 6.0000
 14.0000
 6.0000
 0.0000
 7.0000
 5.0000
 7.0000
 14.0000
 7.0000
 0.0000
 8.0000
 1.0000
 8.0000
 2.0000
 8.0000
 3.0000
 8.0000
 4.0000
 8.0000
 5.0000
 8.0000
 6.0000
 8.0000
 7.0000
 8.0000
 8.0000
 8.0000
 9.0000
 8.0000
 10.0000
 8.0000
 11.0000
 8.0000
 12.0000
 8.0000
 13.0000
 8.0000
 14.0000
 8.0000

[Doors]
 3.0000
 5.0000
 3.0000
 3.0000
 4.0000
 5.0000
 6.0000

[Specials]
 2.0000
 6.0000
 4.0000
 13.0000
 4.0000

[FloydNext]
 5.0000
 3.0000
 5.0000
 1.0000
 7.0000

 5.0000
 6.0000
 2.0000

 1.0000
 6.0000
 7.0000

 2.0000
 2.0000
 7.0000

 0.0000
 2.0000
 7.0000


[NextDoor]
 0.0000
 2.0000
 1.0000
 0.0000

 1.0000
 2.0000
 1.0000
 0.0000

 2.0000
 2.0000
 1.0000
 0.0000

 3.0000
 2.0000
 2.0000
 1.0000

 4.0000
 2.0000
 2.0000
 1.0000

 5.0000
 2.0000
 2.0000
 1.0000

 6.0000
 2.0000
 2.0000
 0.0000

 7.0000
 2.0000
 2.0000
 0.0000

 8.0000
 2.0000
 2.0000
 0.0000


[NewArea]
 3.0000
 3.0000
 0.0000
 0.0000
 0.0000

 0.0000
 1.0000
 1.0000

 1.0000
 1.0000
 1.0000


[Switches]
 6.0000
 6.0000
 3.5000
 2.0000
 5.0000
 3.5000
 0.0000
 3.5000
 4.0000
 0.0000
 3.5000
 5.0000
 1.0000
 6.0000
 6.5000
 2.0000
 5.0000
 6.5000
 1.0000

[Spawns]
 1.0000
 11.0000
 4.0000
 2.0000

[Hero]
 2.0000
 2.0000
 0.0000

